00001,50.40,C
00002,54.80,C
00003,34.40,F
00004,90.80,A
00005,42.20,D
00006,40.20,D
00008,34.20,F
00010,93.00,A
00011,72.40,A
00012,88.80,A
00013,39.20,F
00014,52.60,C
00015,63.40,B
00016,93.20,A
00017,54.80,C
00018,93.60,A
00019,89.20,A
00020,95.00,A
00021,78.00,A
00022,70.40,A
00023,71.20,A
00025,67.20,B
00026,73.80,A
00027,69.00,B
00028,27.80,F
00029,78.20,A
00030,55.20,C
00031,50.80,C
00032,31.00,F
00033,37.40,F
00034,95.00,A
00035,93.80,A
00036,92.80,A
00037,47.00,D
00038,91.40,A
00039,29.20,F
00040,65.20,B
00041,69.20,B
00042,31.40,F
00043,54.00,C
00044,92.20,A
00045,88.20,A
00046,53.20,C
00047,72.60,A
00048,85.80,A
00049,64.00,B
00050,93.80,A
00051,38.20,F
00052,51.00,C
00053,65.80,B
00055,48.00,D
00056,75.20,A
00058,87.00,A
00059,21.40,F
00060,36.80,F
00061,93.40,A
00062,46.40,D
00063,94.80,A
00064,73.40,A
00065,62.40,B
00067,64.20,B
00068,58.80,C
00069,94.40,A
00070,69.80,B
00071,76.00,A
00072,57.00,C
00073,41.00,D
00074,95.00,A
00075,79.20,A
00076,33.40,F
00077,73.20,A
00079,30.00,F
00080,61.80,B
00081,87.20,A
00082,70.20,A
00083,37.20,F
00084,60.00,B
00085,82.60,A
00086,70.60,A
00087,26.00,F
00088,71.60,A
00089,54.20,C
00090,38.00,F
00091,41.00,D
00092,35.60,F
00093,64.00,B
00094,42.60,D
00095,47.20,D
00096,31.60,F
00097,45.80,D
00098,37.20,F
00099,87.20,A
00100,46.60,D
00101,94.40,A
00102,29.40,F
00103,85.00,A
00104,23.60,F
00105,85.60,A
00106,54.80,C
00107,89.00,A
00109,29.00,F
00110,25.20,F
