00001,76,35,45,48
00002,-1,69,67,69
00003,66,38,-1,34
00004,64,97,93,100
00005,78,44,35,27
00006,68,47,-1,43
00008,74,20,23,27
00010,65,100,100,100
00011,73,63,76,75
00012,69,93,100,91
00013,70,46,-1,40
00014,76,50,45,46
00015,-1,74,79,82
00016,66,100,100,100
00017,74,100,100,-1
00018,68,100,100,100
00019,62,92,94,99
00020,75,100,100,100
00021,72,85,79,77
00022,67,70,77,69
00023,68,-1,88,100
00025,74,71,65,63
00026,64,72,77,78
00027,73,96,-1,88
00028,65,24,-1,25
00029,66,81,86,79
00030,65,47,60,52
00031,76,-1,-1,89
00032,67,37,51,-1
00033,74,26,27,30
00034,75,100,100,100
00035,69,100,100,100
00036,68,96,100,100
00037,63,42,44,43
00038,71,100,100,93
00039,71,18,15,21
00040,69,85,-1,86
00041,72,94,-1,90
00042,72,16,23,23
00043,70,100,100,-1
00044,75,96,94,98
00045,74,93,94,90
00046,76,43,47,50
00047,74,76,75,69
00048,64,90,87,94
00049,71,-1,85,82
00050,69,100,100,100
00051,69,41,31,25
00052,67,-1,62,63
00053,69,67,65,64
00055,64,45,53,39
00056,80,82,76,69
00058,68,81,86,100
00059,-1,30,25,26
00060,67,41,-1,38
00061,67,100,100,100
00062,71,42,49,35
00063,74,100,100,100
00064,67,100,-1,100
00065,74,70,64,52
00067,69,59,67,63
00068,67,63,52,56
00069,72,100,100,100
00070,-1,83,90,88
00071,70,69,75,83
00072,69,52,62,51
00073,71,37,39,29
00074,75,100,100,100
00075,70,85,77,82
00076,71,23,33,20
00077,81,93,-1,96
00079,68,16,24,21
00080,67,64,62,58
00081,64,93,89,95
00082,74,64,67,73
00083,-1,95,91,-1
00084,-1,-1,100,100
00085,75,86,92,80
00086,69,96,-1,94
00087,73,25,32,-1
00088,78,76,66,69
00089,71,100,100,-1
00090,70,60,60,-1
00091,63,35,31,38
00092,-1,48,50,40
00093,72,57,57,67
00094,72,26,45,35
00095,74,43,41,39
00096,62,53,43,-1
00097,67,38,38,43
00098,72,32,-1,41
00099,65,90,97,92
00100,76,37,40,40
00101,72,100,100,100
00102,76,39,32,-1
00103,72,84,97,86
00104,65,23,30,-1
00105,63,98,93,87
00106,76,39,51,54
00107,77,94,100,87
00109,71,30,-1,22
00110,77,-1,49,-1
