00001,-1,-1,46,42
00002,52,58,65,65
00003,62,78,73,75
00005,65,61,57,54
00006,59,89,77,86
00007,71,47,-1,50
00008,66,40,34,31
00009,64,12,14,10
00010,67,100,-1,100
00011,66,93,97,88
00013,61,-1,-1,76
00014,65,87,81,89
00015,52,49,44,43
00016,56,8,5,-1
00017,62,70,77,64
00018,67,-1,57,58
00019,50,14,17,12
00021,62,85,-1,88
00022,74,83,85,85
00023,54,76,83,77
00024,56,8,5,-1
00025,64,37,-1,31
00026,66,24,26,29
00027,56,5,6,5
00028,64,55,58,60
00029,61,48,38,43
00030,61,28,-1,28
00031,73,-1,86,79
00032,58,51,54,56
00033,63,97,-1,93
00034,-1,64,57,60
00035,60,87,80,90
00036,66,97,100,96
00037,64,42,45,36
00038,59,11,9,7
00039,67,7,-1,7
00040,62,34,32,30
00041,58,21,28,19
00042,64,13,12,15
00043,64,52,47,54
00044,66,64,60,61
00045,64,46,42,48
00046,62,83,86,78
00047,66,19,12,13
00048,-1,91,-1,96
00049,68,87,-1,93
00050,65,88,87,93
00051,57,100,-1,94
00052,64,-1,97,99
00053,65,-2,2,-2
00054,-1,69,63,65
00055,53,23,-1,14
00058,61,49,47,46
00059,-1,29,23,34
00060,60,-1,62,62
00061,59,98,98,95
00062,66,24,28,30
00063,53,40,34,36
00064,69,13,6,16
00065,62,70,68,70
00066,62,73,55,-1
00068,67,16,16,17
00070,64,54,59,56
00071,60,52,49,46
00072,60,74,-1,64
00073,53,77,86,85
00074,-1,80,80,87
00075,60,60,56,54
00076,60,43,49,50
00077,-1,-1,26,27
00078,61,92,-1,97
00079,66,45,56,53
00080,63,81,87,87
00081,57,-1,50,55
00082,60,50,-1,42
00083,58,64,-1,-1
00084,52,8,12,5
00086,60,44,-1,42
00087,70,40,44,43
00088,55,66,67,63
00089,55,88,91,86
00090,65,0,3,1
00091,58,26,31,34
00092,63,66,67,65
00093,68,62,64,66
00094,59,49,55,58
00096,55,82,85,79
00097,61,26,26,24
00098,59,70,84,-1
00099,57,-1,45,49
00100,-1,93,88,94
00101,60,43,48,52
00102,52,87,87,85
00103,63,0,7,3
00104,60,-1,82,80
00106,63,6,-1,-2
00107,57,55,-1,43
00108,58,95,88,93
00109,60,7,8,-1
00110,54,83,84,79
00111,-1,42,42,43
00112,63,46,46,43
00113,56,55,55,56
00114,-1,63,65,69
00115,70,40,39,42
00116,64,28,23,28
00117,57,46,49,54
00118,60,72,72,76
00119,67,28,25,25
00120,60,47,48,52
00121,61,46,47,-1
00122,59,28,28,21
00123,-1,77,77,65
00124,58,76,-1,75
00125,54,69,75,62
00126,63,33,24,29
00127,61,10,16,9
00128,64,10,-1,9
00129,59,92,97,91
00130,60,80,85,86
00131,63,84,88,92
00132,63,42,37,-1
00133,-1,55,-1,58
00134,64,18,15,13
00135,56,44,35,39
00136,57,93,90,99
00137,-1,65,69,63
00138,59,35,42,42
00139,58,32,29,31
00141,55,-1,15,16
00142,65,26,24,17
00143,55,30,27,33
00144,52,-1,38,38
00145,52,86,84,89
00146,-1,84,84,-1
00147,59,61,64,62
00148,67,16,17,12
00149,57,14,15,12
00150,55,73,83,85
00151,54,93,97,98
00152,63,92,89,92
00153,58,27,21,38
00155,58,22,15,18
00156,54,95,94,98
00157,63,49,49,53
00159,63,14,19,12
00160,55,92,-1,78
00161,59,17,15,4
00162,63,84,-1,-1
00163,-1,-1,20,11
00164,49,21,23,19
00165,59,31,34,36
00166,-1,30,29,27
00167,70,57,68,69
00168,65,-1,9,5
00169,74,-1,-4,5
00170,63,45,45,44
00171,59,60,62,60
00172,64,35,36,40
00173,71,60,65,68
00174,60,93,94,-1
00175,55,100,92,88
00176,63,76,86,73
00177,58,7,7,13
00178,71,43,44,45
00179,58,77,75,72
00180,61,40,40,48
00181,64,64,64,66
00182,62,17,11,20
00183,56,67,65,72
00184,57,20,17,12
00185,67,-1,36,32
00187,64,8,11,-1
00188,50,100,98,96
00189,63,52,53,53
00190,58,98,99,100
00191,52,21,22,18
00192,68,70,63,-1
00193,59,38,28,36
00194,64,88,81,84
00195,56,49,62,53
00196,51,15,-1,20
00197,56,23,26,24
00198,57,49,51,51
00199,62,63,65,61
00200,56,13,16,-1
