case=Test 1
input= ./ex,100,c
output=100.00 c > 212.00 f
grade=20


./ex,0,c,0.00 c > 32.00 f,20
./ex,95,c,95.00 c > 203.00 f,20
./ex,-40,c,-40.00 c > -40.00 f,5
./ex,-40,f,-40.00 f > -40.00 c,5
./ex,98.4,f,98.40 f > 36.89 c,20
./ex,55,x,Type Error,10
